@startuml
skinparam BoxPadding 10
skinparam SequenceTitleFontSize 25
skinparam SequenceGroupHeaderFontSize 15
skinparam SequenceGroupFontSize 15
skinparam SequenceGroupBodyBackgroundColor transparent
skinparam Padding 4


title: Track Event Handler (Decorator)

box Lambda #darkorange
    participant "@tracker.track_event_handler" as track_event_handler
    participant "track_event_handler func_wrapper()" as func_wrapper
    participant EventHandlerLambda
end box
box "DynamoDB" #royalblue
    participant CollectionBlockerTable
    participant TrackingTable
    participant ObjectStoreTable
end box

--> track_event_handler: invoked
track_event_handler ++
    note right track_event_handler
        params:
            event_name
    end note
    track_event_handler -> func_wrapper ++: invoke with Event, Context

        func_wrapper -> func_wrapper ++: generate tracking_id from Event namespace, event_keys
            func_wrapper --

        func_wrapper -> TrackingTable ++: query_items() Oldest Tracking Record by tracking_id
        func_wrapper <<-- TrackingTable --: Oldest Tracking Record

        opt if not Oldest Tracking Record
            track_event_handler <<-- func_wrapper: raise TerminalErrorException
        end

        opt if Event does not match Oldest Tracking Record
            func_wrapper -> func_wrapper ++: <color:maroon>**[Commons.ThrottleErrorHandling.puml]**</color>
                func_wrapper --
            track_event_handler <<-- func_wrapper: exit (event is not yet the oldest in the \n TrackingTable - try again later)
        end

        func_wrapper -> EventHandlerLambda ++: invoke func() with Event, Lambda Context
            note right: **{Event Handler Lambda PlantUML}**
        func_wrapper <<-- EventHandlerLambda --: Response

        alt if Tracking Record
            func_wrapper -> TrackingTable ++: delete_item() Oldest Tracking Record \n by tracking-id and request-time
                func_wrapper <<-- TrackingTable
            TrackingTable --
        else
            track_event_handler <<-- func_wrapper: raise TerminalErrorException
        end

    track_event_handler <<-- func_wrapper --: Response

<<-- track_event_handler: Response
track_event_handler --
@enduml