{
  "title": "Changeset properties",
  "type": "object",
  "required": [
    "changeset-state",
    "changeset-id",
    "owner-id",
    "changeset-url",
    "changeset-timestamp",
    "changset-expiration-date"
  ],
  "properties": {
    "changset-state": {
      "type": "string",
      "enum": [
        "Opened",
        "Closed",
        "Closing",
        "Expired"
      ]
    },
    "changeset-id": {
      "type": "string"
    },
    "owner-id": {
      "type": "integer"
    },
    "changeset-url": {
      "type": "string"
    },
    "changeset-timestamp": {
      "type": "string"
    },
    "changeset-expiration-date": {
      "type": "string"
    },
    "description": {
      "type": "string"
    }
  }
}
