{
  "title": "Changeset response",
  "type": "object",
  "required": [
    "context",
    "changeset"
  ],
  "properties": {
    "context": {
      "$ref": {
        "Fn::Sub": "https://apigateway.amazonaws.com/restapis/${CloudMetadata.asset.outputs.DataLakeObjectApi}/models/${CloudMetadata.asset.outputs.DataLakeObjectApiModelContextProperties}"
      }
    },
    "changeset": {
      "$ref": {
        "Fn::Sub": "https://apigateway.amazonaws.com/restapis/${CloudMetadata.asset.outputs.DataLakeObjectApi}/models/${ModelChangesetProperties}"
      }
    }
  }
}
