{
  "title": "RemoveObjects request",
  "type": "object",
  "required": [
    "object-ids"
  ],
  "additionalProperties": false,
  "properties": {
    "description": {
      "type": "string"
    },
    "object-ids": {
      "type": "array",
      "minItems": 1,
      "items": {
        "type": "string"
      }
    }
  }
}
