{
  "aws:SourceVpce": [
    "vpce-699a3300",
    "vpce-7f52d516",
    "vpce-6b933a02",
    "vpce-04881057207266469",
    "vpce-b29930db",
    "vpce-0a6729fea1204fdf5",
    "vpce-f22cf59b",
    "vpce-4a7da423",
    "vpce-eaf92183",
    "vpce-ee1fba87",
    "vpce-781b8811",
    "vpce-044e4e39cc76e43b4",
    "vpce-dbe632b2",
    "vpce-1ed24477",
    "vpce-b04d99d9",
    "vpce-7c399815",
    "vpce-1a3ef073",
    "vpce-0ac6a7cee0a62a194",
    "vpce-0b6d477ceca05006e",
    "vpce-065d21651550331f1",
    "vpce-a99932c0",
    "vpce-4d2bdb24",
    "vpce-04d242502e2fc5c8f",
    "vpce-6b933a02",
    "vpce-b29930db",
    "vpce-0bc07f2c3a647e1a4",
    "vpce-f06bd299",
    "vpce-668b470f",
    "vpce-02d1a5e455da393ea",
    "vpce-0ed17f714a13d770e"
  ]
}