{
  "$schema": "http://json-schema.org/draft-04/schema#",
  "title": "Create Object",
  "description": "Notification sent to a subscriber after a Create Object event",
  "type": "object",
  "required": [
    "object-id",
    "collection-id",
    "item-state",
    "bucket-name",
    "object-key",
    "content-type",
    "raw-content-length",
    "version-number",
    "version-timestamp",
    "event-name",
    "S3",
    "object-key-url"
  ],
  "additionalProperties": false,
  "properties": {
    "object-id": {
      "type": "string"
    },
    "collection-id": {
      "type": "string"
    },
    "item-state": {
      "type": "string",
      "enum": [
        "Created"
      ]
    },
    "bucket-name": {
      "type": "string"
    },
    "object-key": {
      "type": "string"
    },
    "content-type": {
      "type": "string"
    },
    "raw-content-length": {
      "type": "integer"
    },
    "version-number": {
      "type": "integer"
    },
    "version-timestamp": {
      "type": "string"
    },
    "event-name": {
      "type": "string",
      "enum": [
        "Object::Create"
      ]
    },
    "S3": {
      "type": "object",
      "additionalProperties": false,
      "properties": {
        "Key": {
          "type": "string"
        },
        "Bucket": {
          "type": "string"
        }
      }
    },
    "replicated-buckets": {
      "type": "array",
      "uniqueItems": true,
      "items": {
        "type": "string"
      }
    },
    "object-key-url": {
      "type": "string"
    },
    "pending-expiration-epoch": {
      "type": "integer"
    }
  }
}