{
  "$schema": "http://json-schema.org/draft-04/schema#",
  "title": "JSON response from CreateOwner Command lambda function",
  "description": "Schema describing JSON object returned in response by data lake CreateOwner Command lambda function",
  "type": "object",
  "required": [
    "context",
    "response"
  ],
  "additionalProperties": false,
  "properties": {
    "context": {
      "$ref": "#/definitions/lambda-response-context"
    },
    "response": {
      "$ref": "#/definitions/owner-properties"
    }
  },
  "definitions": {
    "lambda-response-context": {
      "type": "object",
      "required": [
        "request-id",
        "request-time",
        "function-arn"
      ],
      "additionalProperties": false,
      "properties": {
        "request-id": {
          "type": "string"
        },
        "request-time": {
          "type": "string"
        },
        "function-arn": {
          "type": "string"
        },
        "log-group-name": {
          "type": "string"
        },
        "log-stream-name": {
          "type": "string"
        }
      }
    },
    "owner-properties": {
      "type": "object",
      "required": [
        "owner-id",
        "owner-name",
        "email-distribution",
        "api-key"
      ],
      "additionalProperties": false,
      "properties": {
        "owner-id": {
          "type": "integer"
        },
        "owner-name": {
          "type": "string"
        },
        "email-distribution": {
          "type": "array",
          "uniqueItems": true,
          "items": {
            "type": "string"
          }
        },
        "api-key": {
          "type": "string"
        },
        "collection-prefixes": {
          "type": "array",
          "uniqueItems": true,
          "items": {
            "type": "string"
          }
        }
      }
    }
  }
}