{
  "$schema": "http://json-schema.org/draft-04/schema#",
  "title": "JSON response from ListAssets Command lambda function",
  "description": "Schema describing JSON object returned in response by data lake ListAssets Command lambda function",
  "type": "object",
  "required": [
    "context",
    "response"
  ],
  "additionalProperties": false,
  "properties": {
    "context": {
      "$ref": "#/definitions/lambda-response-context"
    },
    "response": {
      "$ref": "#/definitions/assets-pagination"
    }
  },
  "definitions": {
    "lambda-response-context": {
      "type": "object",
      "required": [
        "request-id",
        "request-time",
        "function-arn"
      ],
      "additionalProperties": false,
      "properties": {
        "request-id": {
          "type": "string"
        },
        "request-time": {
          "type": "string"
        },
        "function-arn": {
          "type": "string"
        },
        "log-group-name": {
          "type": "string"
        },
        "log-stream-name": {
          "type": "string"
        }
      }
    },
    "assets-pagination": {
      "type": "object",
      "required": [
        "assets",
        "item-count"
      ],
      "additionalProperties": false,
      "properties": {
        "assets": {
          "type": "array",
          "uniqueItems": true,
          "items": {
            "type": "object",
            "required": [
              "asset-id",
              "asset-name"
            ],
            "additionalProperties": false,
            "properties": {
              "asset-id": {
                "type": "integer"
              },
              "asset-name": {
                "type": "string"
              }
            }
          }
        },
        "next-token": {
          "type": "string"
        },
        "item-count": {
          "type": "integer"
        }
      }
    }
  }
}