{
  "$schema": "http://json-schema.org/draft-04/schema#",
  "title": "JSON response from UpdateRelationship Command lambda function",
  "description": "Schema describing JSON object returned in response by data lake UpdateRelationship Command lambda function",
  "type": "object",
  "required": [
    "context",
    "response"
  ],
  "additionalProperties": false,
  "properties": {
    "context": {
      "$ref": "#/definitions/lambda-response-context"
    },
    "response": {
      "$ref": "#/definitions/update-relationship-properties"
    }
  },
  "definitions": {
    "lambda-response-context": {
      "type": "object",
      "required": [
        "request-id",
        "request-time",
        "function-arn"
      ],
      "additionalProperties": false,
      "properties": {
        "request-id": {
          "type": "string"
        },
        "request-time": {
          "type": "string"
        },
        "function-arn": {
          "type": "string"
        },
        "log-group-name": {
          "type": "string"
        },
        "log-stream-name": {
          "type": "string"
        }
      }
    },
    "relationship-type-properties": {
      "type": "string",
      "enum": [
        "Metadata",
        "Transformation"
      ]
    },
    "update-relationship-properties": {
      "type": "object",
      "additionalProperties": false,
      "required": [
        "relationship-id",
        "owner-id",
        "relationship-type"
      ],
      "properties": {
        "relationship-id": {
          "type": "string"
        },
        "description": {
          "type": "string"
        },
        "owner-id": {
          "type": "integer"
        },
        "relationship-type": {
          "$ref": "#/definitions/relationship-type-properties"
        },
        "catalog-commitments": {
          "type": "array",
          "uniqueItems": true,
          "items": {
            "type": "string"
          }
        },
        "collection-commitments": {
          "type": "array",
          "uniqueItems": true,
          "items": {
            "type": "string"
          }
        },
        "relationship-state": {
          "type": "string"
        }
      }
    }
  }
}