{
  "title": "Update Subscription request",
  "type": "object",
  "required": [
    "patch-operations"
  ],
  "additionalProperties": false,
  "properties": {
    "patch-operations": {
      "type": "array",
      "uniqueItems": true,
      "minItems": 1,
      "maxItems": 3,
      "items": {
        "required": [
          "op",
          "path",
          "value"
        ],
        "additionalProperties": false,
        "properties": {
          "op": {
            "type": "string",
            "description": "The operation to be performed",
            "enum": [
              "replace"
            ]
          },
          "path": {
            "type": "string",
            "description": "The path of the json object to replace",
            "enum": [
              "/subscription-name",
              "/filter",
              "/schema-version"
            ]
          },
          "value": {
            "type": "object",
            "description": "The value used by the operation. Expected type depends on path: <br> /subscription-name=string <br> /filter=Object with optional keys: \"event-name\", \"collection-id\" and \"catalog-id\". Optional keys have a type of array(string). <br> /schema-version=array(string)"
          }
        }
      }
    }
  }
}