{
  "$schema": "http://json-schema.org/draft-04/schema#",
  "title": "JSON request to CreateObjectMultipartUpload Command lambda function",
  "description": "Schema describing JSON object sent as request to data lake CreateObjectMultipartUpload Command lambda function",
  "type": "object",
  "required": [
    "context",
    "request"
  ],
  "additionalProperties": false,
  "properties": {
    "context": {
      "$ref": "#/definitions/apig-request-context"
    },
    "request": {
      "$ref": "#/definitions/create-object-properties-multipart-upload"
    }
  },
  "definitions": {
    "apig-request-context": {
      "type": "object",
      "required": [
        "client-request-id",
        "client-request-time",
        "stage",
        "api-key-id"
      ],
      "additionalProperties": false,
      "properties": {
        "api-key-id": {
          "type": "string"
        },
        "client-request-id": {
          "type": "string"
        },
        "client-request-time": {
          "type": "string"
        },
        "client-type": {
          "type": "string",
          "enum": [
            "aws-apigateway",
            "aws-lambda",
            "aws-step-function",
            "test-driver",
            "native-client"
          ]
        },
        "stage": {
          "type": "string"
        },
        "client-id": {
          "type": "string"
        },
        "http-method": {
          "type": "string",
          "enum": [
            "POST"
          ]
        },
        "resource-id": {
          "type": "string"
        },
        "resource-path": {
          "type": "string"
        }
      }
    },
    "create-object-properties-multipart-upload": {
      "type": "object",
      "required": [
        "collection-id",
        "content-type"
      ],
      "additionalProperties": false,
      "properties": {
        "collection-id": {
          "type": "string"
        },
        "content-type": {
          "type": "string"
        },
        "object-id": {
          "type": "string"
        },
        "object-metadata": {
          "type": "object",
          "additionalProperties": {
            "type": "string"
          }
        },
        "changeset-id": {
          "type": "string"
        }
      }
    }
  }
}