{
  "$schema": "http://json-schema.org/draft-04/schema#",
  "title": "JSON response from GetIngestion Command lambda function",
  "description": "Schema describing JSON object returned in response by data lake GetIngestion Command lambda function",
  "type": "object",
  "required": [
    "context",
    "response"
  ],
  "additionalProperties": false,
  "properties": {
    "context": {
      "$ref": "#/definitions/lambda-response-context"
    },
    "response": {
      "$ref": "#/definitions/ingestion-properties"
    }
  },
  "definitions": {
    "lambda-response-context": {
      "type": "object",
      "required": [
        "request-id",
        "request-time",
        "function-arn"
      ],
      "additionalProperties": false,
      "properties": {
        "request-id": {
          "type": "string"
        },
        "request-time": {
          "type": "string"
        },
        "function-arn": {
          "type": "string"
        },
        "log-group-name": {
          "type": "string"
        },
        "log-stream-name": {
          "type": "string"
        }
      }
    },
    "ingestion-properties": {
      "type": "object",
      "required": [
        "ingestion-state",
        "collection-id",
        "collection-url",
        "ingestion-id",
        "ingestion-url",
        "owner-id",
        "archive-format",
        "ingestion-timestamp",
        "upload-id",
        "bucket-name",
        "ingestion-expiration-date"
      ],
      "additionalProperties": false,
      "properties": {
        "ingestion-state": {
          "type": "string",
          "enum": [
            "Pending",
            "Validating",
            "Processing",
            "Completed",
            "Error",
            "Cancelled"
          ]
        },
        "collection-id": {
          "type": "string"
        },
        "collection-url": {
          "type": "string"
        },
        "ingestion-id": {
          "type": "string"
        },
        "ingestion-url": {
          "type": "string"
        },
        "owner-id": {
          "type": "integer"
        },
        "archive-format": {
          "type": "string",
          "enum": [
            "zip"
          ]
        },
        "ingestion-timestamp": {
          "type": "string"
        },
        "upload-id": {
          "type": "string"
        },
        "bucket-name": {
          "type": "string"
        },
        "ingestion-expiration-date": {
          "type": "string"
        },
        "object-count": {
          "type": "integer"
        },
        "object-tracked-count": {
          "type": "integer"
        },
        "object-processed-count": {
          "type": "integer"
        },
        "object-updated-count": {
          "type": "integer"
        },
        "object-error-count": {
          "type": "integer"
        },
        "error-description": {
          "type": "string"
        },
        "description": {
          "type": "string"
        },
        "changeset-id": {
          "type": "string"
        }
      }
    }
  }
}