{
  "$schema": "http://json-schema.org/draft-04/schema#",
  "title": "JSON response from GetObject Command lambda function",
  "description": "Schema describing JSON object returned in response by data lake GetObject Command lambda function",
  "type": "object",
  "required": [
    "context",
    "response"
  ],
  "additionalProperties": false,
  "properties": {
    "context": {
      "$ref": "#/definitions/lambda-response-context"
    },
    "response": {
      "$ref": "#/definitions/object-properties-n-content"
    }
  },
  "definitions": {
    "lambda-response-context": {
      "type": "object",
      "required": [
        "request-id",
        "request-time",
        "function-arn"
      ],
      "additionalProperties": false,
      "properties": {
        "request-id": {
          "type": "string"
        },
        "request-time": {
          "type": "string"
        },
        "function-arn": {
          "type": "string"
        },
        "log-group-name": {
          "type": "string"
        },
        "log-stream-name": {
          "type": "string"
        }
      }
    },
    "object-properties-n-content": {
      "type": "object",
      "required": [
        "collection-id",
        "collection-url",
        "object-id",
        "object-state",
        "object-url",
        "object-key-url",
        "raw-content-length",
        "content-type",
        "owner-id",
        "asset-id"
      ],
      "additionalProperties": false,
      "properties": {
        "object-state": {
          "type": "string",
          "enum": [
            "Created",
            "Removed"
          ]
        },
        "collection-id": {
          "type": "string"
        },
        "collection-url": {
          "type": "string"
        },
        "object-id": {
          "type": "string"
        },
        "object-url": {
          "type": "string"
        },
        "version-number": {
          "type": "integer"
        },
        "version-timestamp": {
          "type": "string"
        },
        "object-body": {
          "type": "string"
        },
        "owner-id": {
          "type": "integer"
        },
        "asset-id": {
          "type": "integer"
        },
        "object-key-url": {
          "type": "string"
        },
        "raw-content-length": {
          "type": "integer"
        },
        "content-type": {
          "type": "string"
        },
        "object-metadata": {
          "type": "object",
          "additionalProperties": {
            "type": "string"
          }
        },
        "object-redirect": {
          "type": "boolean"
        },
        "changeset-id": {
          "type": "string"
        }
      }
    }
  }
}