{
  "$schema": "http://json-schema.org/draft-04/schema#",
  "title": "JSON response from RemoveCollection Command lambda function",
  "description": "Schema describing JSON object returned in response by data lake RemoveCollection Command lambda function",
  "type": "object",
  "required": [
    "context",
    "response"
  ],
  "additionalProperties": false,
  "properties": {
    "context": {
      "$ref": "#/definitions/lambda-response-context"
    },
    "response": {
      "$ref": "#/definitions/collection-properties"
    }
  },
  "definitions": {
    "lambda-response-context": {
      "type": "object",
      "required": [
        "request-id",
        "request-time",
        "function-arn"
      ],
      "additionalProperties": false,
      "properties": {
        "request-id": {
          "type": "string"
        },
        "request-time": {
          "type": "string"
        },
        "function-arn": {
          "type": "string"
        },
        "log-group-name": {
          "type": "string"
        },
        "log-stream-name": {
          "type": "string"
        }
      }
    },
    "collection-properties": {
      "type": "object",
      "required": [
        "collection-state",
        "collection-timestamp",
        "collection-id",
        "collection-url",
        "owner-id",
        "asset-id",
        "classification-type",
        "old-object-versions-to-keep"
      ],
      "additionalProperties": false,
      "properties": {
        "collection-state": {
          "type": "string",
          "enum": [
            "Created",
            "Suspended",
            "Terminating",
            "TerminatingFailed",
            "Terminated"
          ]
        },
        "collection-timestamp": {
          "type": "string"
        },
        "collection-id": {
          "type": "string"
        },
        "collection-url": {
          "type": "string"
        },
        "owner-id": {
          "type": "integer"
        },
        "asset-id": {
          "type": "integer"
        },
        "description": {
          "type": "string"
        },
        "classification-type" : {
          "type": "string",
          "enum": [
            "Content",
            "Test"
          ]
        },
        "object-expiration-hours": {
          "type": "integer",
          "minimum": 1
        },
        "old-object-versions-to-keep": {
          "type": "integer",
          "minimum": -1
        }
      }
    }
  }
}