@startuml
title: Publisher/Enhancer flow

actor Publisher
actor "Judge Enhancer" as Enhancer_1
actor "Attorney Enhancer" as Enhancer_2
participant "Attorney Collection" as Attorney_Collection
participant "Judge Collection" as Judge_Collection
participant "CaseLaw Collection" as CaseLaw
participant "Relationship" as Relationship
participant "Notification" as Notification
participant "Data Index" as DataIndex
actor "Client" as Client_1

Publisher ++
Publisher -> CaseLaw ++ : Create CaseLaw Objects
Publisher --
CaseLaw -> Notification ++
Notification -> DataIndex ++
DataIndex --
CaseLaw --
Notification -> Enhancer_1 ++ : CaseLaw create or update events
Notification -> Enhancer_2 ++ : CaseLaw create or update events
Notification --
Enhancer_1 -> Enhancer_1 ++ : Extract Judge
Enhancer_1 -> Judge_Collection ++ : Judge Extractions
Judge_Collection -> Notification ++
Notification -> DataIndex ++
DataIndex --
Notification --
Judge_Collection --
Enhancer_1 --
Enhancer_1 -> Relationship++ : Identify Relationship to source document
Enhancer_1 --
Relationship -> Notification ++
Relationship --
Notification -> DataIndex ++
Notification --
DataIndex -> DataIndex ++ : Alert on Event
DataIndex -> Notification ++ : Aggregate Event
DataIndex --
DataIndex --
DataIndex --
Notification --

Enhancer_2 -> Enhancer_2 ++ : Extract Attorney
Enhancer_2 -> Attorney_Collection ++ : Attorney Extractions
Attorney_Collection -> Notification ++
Notification -> DataIndex ++
DataIndex --
Notification --
Attorney_Collection --
Enhancer_2 --
Enhancer_2 -> Relationship++ : Identify Relationship to source document
Relationship -> Notification ++
Relationship --
Enhancer_2 --
Notification -> DataIndex ++
Notification --
DataIndex -> DataIndex ++ : Alert on Event
DataIndex -> Notification ++ : Aggregate Event
DataIndex --
DataIndex --
Notification -> Client_1 ++ : Aggregate Event
Notification --
Client_1 -> CaseLaw ++ : Retrieve (S3 Call)
CaseLaw --
Client_1 -> Judge_Collection ++ : Retrieve (S3 Call)
Judge_Collection --
Client_1 -> Attorney_Collection ++ : Retrieve (S3 Call)
Attorney_Collection --
Client_1 -> Client_1 ++ : Process Content
Client_1 --
Client_1 -> DataIndex ++ : Acknowledgement
DataIndex --
Client_1 --



@enduml
