{
  "info": {
    "description": "The Object API allows users to create, update, get, or delete Objects in the DataLake.",
    "contact": {
      "name": "DataLake Team",
      "url": "https://wiki.regn.net/wiki/Project_Wormhole",
      "email": "Wormhole-PlanetX@ReedElsevier.com"
    }
  },
  "tags": [
    {
      "name": "Objects",
      "description": "Operations with an Object",
      "externalDocs": {
        "description": "Find out more",
        "url": "https://wiki.regn.net/wiki/DataLake_Hello_World#Objects"
      }
    },
    {
      "name": "Multipart Objects",
      "description": "Operations with a Multipart Object"
    },
    {
      "name": "Folder Objects",
      "description": "Load multiple files as one singular object. Used when multiple files must be stored together in a directory-like fashion, mainly parquet files.",
      "externalDocs": {
        "description": "Find out more",
        "url": "https://datalake-staging.content.aws.lexis.com/#FolderObDoc"
      }
    },
    {
      "name": "Ingestion",
      "description": "Load multiple files contained in a zip, each as a separate object."
    }
  ],
  "externalDocs": {
    "description": "Get started with our Hello World!",
    "url": "https://wiki.regn.net/wiki/DataLake_Hello_World"
  }
}

