@startuml
skinparam BoxPadding 10
skinparam SequenceTitleFontSize 25
skinparam SequenceGroupHeaderFontSize 15
skinparam SequenceGroupFontSize 15
skinparam SequenceGroupBodyBackgroundColor transparent
skinparam Padding 4


title: Update Owner Event Handler UML

box "SNS" #palevioletred
	participant "Event Dispatcher Topic" as EventDispatcherTopic
end box
box "Lambda" #darkorange
	participant "Update Owner Event Handler" as EventHandler
end box
box "DynamoDB" #royalblue
    participant "Owner Table" as OwnerTable
end box


EventDispatcherTopic ++

EventDispatcherTopic -> EventHandler ++: Filter On Owner::Update
    EventDispatcherTopic --

    EventHandler -> EventHandler ++: Session Decorator
        EventHandler --
    EventHandler -> EventHandler ++: Track Event Handler Wrapper
        EventHandler --

    EventHandler -> EventHandler ++: Extract SNS Message
        EventHandler --
    EventHandler -> EventHandler ++: Validate SNS Message
        EventHandler --
    EventHandler -> EventHandler ++: Validate Event
        EventHandler --

    EventHandler -> OwnerTable ++: GET Existing Owner
        EventHandler <<-- OwnerTable
    OwnerTable --
    EventHandler ++
        opt if no existing owner
            EventHandler -> EventHandler: <color:red>**Error Handling**</color>
        end
    EventHandler --

    EventHandler -> EventHandler ++: Generate Owner Dict
        EventHandler -> EventHandler ++: Combine Existing Owner \n Attributes With New Changes
            EventHandler --
        opt if missing required schema key
            EventHandler -> EventHandler: <color:red>**Error Handling**</color>
        end
    EventHandler --

    alt if owner dict is not None
        EventHandler -> OwnerTable ++: Conditional PUT Owner If Exists
            EventHandler <<-- OwnerTable
        OwnerTable --
    else
        EventHandler -> EventHandler: <color:red>**Error Handling**</color>
    end

    EventHandler -> EventHandler ++: Track Event Handler Wrapper
        EventHandler --

    EventHandler -> EventHandler ++: Error Handler Wrapper
        EventHandler --

EventHandler --
@enduml