{
  "$schema": "http://json-schema.org/draft-04/schema#",
  "title": "JSON request to ListSubscriptions Command lambda function",
  "description": "Schema describing JSON object sent as request to data lake ListSubscriptions Command lambda function",
  "type": "object",
  "required": [
    "context",
    "request"
  ],
  "additionalProperties": false,
  "properties": {
    "context": {
      "$ref": "#/definitions/apig-request-context"
    },
    "request": {
      "$ref": "#/definitions/list-subscriptions-properties"
    }
  },
  "definitions": {
    "apig-request-context": {
      "type": "object",
      "required": [
        "client-request-id",
        "client-request-time",
        "stage",
        "api-key-id"
      ],
      "additionalProperties": false,
      "properties": {
        "api-key-id": {
          "type": "string"
        },
        "client-request-id": {
          "type": "string"
        },
        "client-request-time": {
          "type": "string"
        },
        "client-type": {
          "type": "string",
          "enum": [
            "aws-apigateway",
            "aws-lambda",
            "aws-step-function",
            "test-driver",
            "native-client"
          ]
        },
        "stage": {
          "type": "string"
        },
        "client-id": {
          "type": "string"
        },
        "http-method": {
          "type": "string",
          "enum": [
            "PUT",
            "POST",
            "GET",
            "HEAD",
            "OPTIONS",
            "PATCH",
            "DELETE"
          ]
        },
        "resource-id": {
          "type": "string"
        },
        "resource-path": {
          "type": "string"
        }
      }
    },
    "list-subscriptions-properties": {
      "type": "object",
      "additionalProperties": false,
      "properties": {
        "dummy": {
          "type": "integer"
        },
        "next-token": {
          "type": "string"
        },
        "max-items": {
          "type": "integer"
        },
        "owner-id": {
          "type": "integer"
        }
      }
    }
  }
}