{
  "$schema": "http://json-schema.org/draft-04/schema#",
  "title": "JSON request to UpdateSubscription Command lambda function",
  "description": "Schema describing JSON object sent as request to data lake UpdateSubscription Command lambda function",
  "type": "object",
  "required": [
    "op",
    "path",
    "value"
  ],
  "additionalProperties": false,
  "properties": {
    "op": {
      "type": "string",
      "enum": [
        "replace"
      ]
    },
    "path": {
      "type": "string",
      "enum": [
        "/subscription-name"
      ]
    },
    "value": {
      "type": "string"
    }
  }
}