{
  "title": "Collection properties",
  "type": "object",
  "required": [
    "collection-state",
    "collection-timestamp",
    "collection-id",
    "collection-url",
    "owner-id",
    "asset-id",
    "classification-type",
    "old-object-versions-to-keep"
  ],
  "properties": {
    "collection-state": {
      "type": "string",
      "enum": [
        "Created",
        "Suspended",
        "Terminating",
        "TerminatingFailed",
        "Terminated"
      ]
    },
    "collection-timestamp": {
      "type": "string"
    },
    "collection-id": {
      "type": "string",
      "maxLength" : 40
    },
    "collection-url": {
      "type": "string"
    },
    "description": {
      "type": "string"
    },
    "owner-id": {
      "type": "integer"
    },
    "asset-id": {
      "type": "integer"
    },
    "classification-type" : {
      "type": "string",
      "enum": [
        "Content",
        "Test"
      ]
    },
    "object-expiration-hours": {
      "type": "integer",
      "minimum": 1
    },
    "old-object-versions-to-keep": {
      "type": "integer",
      "minimum": -1
    }
  }
}