{
  "$schema": "http://json-schema.org/draft-04/schema#",
  "title": "ObjectTable",
  "description": "Schema describing Object Table",
  "type": "object",
  "required": [
    "composite-key",
    "version-number",
    "object-id",
    "collection-id",
    "collection-hash",
    "object-state",
    "object-key",
    "bucket-name",
    "content-type",
    "raw-content-length",
    "version-timestamp"
  ],
  "additionalProperties": false,
  "properties": {
    "composite-key": {
      "type": "string"
    },
    "version-number": {
      "type": "integer"
    },
    "object-id": {
      "type": "string"
    },
    "collection-id": {
      "type": "string"
    },
    "collection-hash": {
      "type": "string"
    },
    "latest-version": {
      "type": "string"
    },
    "object-state": {
      "type": "string",
      "enum": [
        "Created",
        "Pending",
        "Removed"
      ]
    },
    "object-key": {
      "type": "string"
    },
    "bucket-name": {
      "type": "string"
    },
    "replicated-buckets": {
      "type": "array",
      "uniqueItems": true
    },
    "content-type": {
      "type": "string"
    },
    "raw-content-length": {
      "type": "integer",
      "minimum": -1
    },
    "version-timestamp": {
      "type": "string"
    },
    "pending-expiration-epoch": {
      "type": "integer"
    }
  }
}

