{
  "$schema": "http://json-schema.org/draft-04/schema#",
  "title": "OwnerTable",
  "description": "Schema describing Owner Table",
  "type": "object",
  "required": [
    "owner-id",
    "owner-name",
    "email-distribution",
    "api-key",
    "api-key-id",
    "event-ids"
  ],
  "additionalProperties": false,
  "properties": {
    "owner-id": {
      "type": "integer"
    },
    "owner-name": {
      "type": "string"
    },
    "email-distribution": {
      "type": "array",
      "uniqueItems": true,
      "items": {
        "type": "string"
      }
    },
    "api-key": {
      "type": "string"
    },
    "api-key-id": {
      "type": "string"
    },
    "event-ids": {
      "type": "array",
      "minItems": 1,
      "maxItems": 3
    },
    "collection-prefix": {
      "type": "string"
    }
  }
}