{
  "$schema": "http://json-schema.org/draft-04/schema#",
  "title": "RepublishTable",
  "description": "Schema describing Republish Table",
  "type": "object",
  "required": [
    "republish-id",
    "subscription-id",
    "republish-state",
    "republish-timestamp",
    "event-ids"
  ],
  "additionalProperties": false,
  "properties": {
    "republish-id": {
      "type": "string"
    },
    "subscription-id": {
      "type": "integer"
    },
    "republish-state": {
      "type": "string",
      "enum": [
        "Pending",
        "Processing",
        "Completed",
        "Retry",
        "Failed"
      ]
    },
    "republish-timestamp": {
      "type": "string"
    },
    "event-ids": {
      "type": "array",
      "minItems": 1,
      "maxItems": 3
    },
    "republish-completed-timestamp": {
      "type": "string"
    },
    "catalog-ids": {
      "type": "array",
      "items": {
        "type": "string"
      }
    },
    "collection-ids": {
      "type": "array",
      "items": {
        "type": "string"
      }
    },
    "changeset-id": {
      "type": "string"
    },
    "pending-expiration-epoch": {
      "type": "integer"
    }
  },
  "oneOf": [
    {
      "required": [
        "catalog-ids"
      ]
    },
    {
      "required": [
        "collection-ids"
      ]
    },
    {
      "required": [
        "changeset-id"
      ]
    }
  ]
}