@startuml
skinparam BoxPadding 10
skinparam SequenceTitleFontSize 25
skinparam SequenceGroupHeaderFontSize 15
skinparam SequenceGroupFontSize 15
skinparam SequenceGroupBodyBackgroundColor transparent
skinparam Padding 4


title: Get Changeset Command

participant Cloudfront
box "API Gateway" #goldenrod
	participant "DataLakeApi-Changeset" as Api
end box
box "Lambda" #darkorange
	participant "GetChangesetCommand" as Command
end box
box "DynamoDB" #royalblue
	participant ChangesetTable
end box


Cloudfront ++

    Cloudfront -> Api ++: Request GET /objects/changeset/{changesetId}
        note right Cloudfront
            Required parameters:
                changesetId (path)
                x-api-key (header)
        endnote
        Api -> Api ++: validate Request: \n query params, headers
            Api --
        Api -> Api ++: Request integration
            Api --

        Api -> Command ++: invoke
            Command -> Command ++: [Commons.SessionDecorator.puml] Decorator
                Command --
            Command -> Command ++: [Commands.CommandWrapper.puml] Decorator
                Command --

            Command -> ChangesetTable ++: get_item() by changeset-id
            Command <<-- ChangesetTable --: Changeset Record

            opt if not Changeset Record
                Api <<-- Command: NoSuchChangeset (404)
            end

            Command -> Command ++: generate Response dict
            Command --

            Command -> Command ++: [Commands.CommandWrapper.puml]
                Command --
            Command -> Command ++: [Commons.SessionDecorator.puml]
                Command --

        Api <<-- Command --: Response (Success)

        Api -> Api ++: Response integration
                Api -> Api ++: return Changeset Content
                    Api --

        Api --
        note right Api
            Response Integration Status Codes
                Success: 200 (OK)

                Lambda Error Regex:
                    ^404.* -> 404 (Not Found)
                    ^500.* -> 500 (Internal Server Error)
        endnote
        Cloudfront <<-- Api: Response <Status Code>
    Api --

Cloudfront --
@enduml