@startuml
skinparam BoxPadding 10
skinparam SequenceTitleFontSize 25
skinparam SequenceGroupHeaderFontSize 15
skinparam SequenceGroupFontSize 15
skinparam SequenceGroupBodyBackgroundColor transparent
skinparam Padding 4

title: Changeset Expiration Listener

box "DynamoDB" #royalblue
    participant ChangesetStream
end box
box "SQS" #navajowhite
    participant ProcessChangesetExpirationRetryQueue
end box
box "Lambda" #darkorange
    participant "ChangesetExpirationListenerLambda" as ExpirationListener
end box
box "DynamoDB" #royalblue
    participant ChangesetTable
end box


ExpirationListener++
    ChangesetStream <- ExpirationListener: receive messages
    ProcessChangesetExpirationRetryQueue <- ExpirationListener: receive messages
    ExpirationListener <- ExpirationListener ++: [Commons.SessionDecorator.puml] Decorator
        ExpirationListener --
        ExpirationListener -> ExpirationListener ++: process_changeset_records()
            loop record in records
                opt if record is REMOVE event
                    opt if changeset-status is not EXPIRED
                        ExpirationListener -> ExpirationListener ++: extend PendingExpirationEpoch and\n set status to EXPIRED
                            ExpirationListener --
                        ExpirationListener -> ChangesetTable ++: put_item()
                        ExpirationListener <<-- ChangesetTable --
                    end
                    opt if RetryableException
                        ExpirationListener -> ExpirationListener ++: retry_message()
                            ExpirationListener -> ProcessChangesetExpirationRetryQueue ++
                            ExpirationListener <<-- ProcessChangesetExpirationRetryQueue --
                        ExpirationListener --
                    end
                end
            end
        ExpirationListener --
        ExpirationListener -> ExpirationListener ++: return success
            ExpirationListener --
ExpirationListener--
@enduml