{
  "title": "List Owners response",
  "type": "object",
  "required": [
    "context",
    "owners",
    "item-count"
  ],
  "properties": {
    "context": {
      "$ref": {
        "Fn::Sub": "https://apigateway.amazonaws.com/restapis/${DataLakeAdministrationApi}/models/${ModelContextProperties}"
      }
    },
    "owners": {
      "type": "array",
      "uniqueItems": true,
      "items": {
        "$ref": {
          "Fn::Sub": "https://apigateway.amazonaws.com/restapis/${DataLakeAdministrationApi}/models/${ModelOwnerProperties}"
        }
      }
    },
    "next-token": {
      "type": "string"
    },
    "item-count": {
      "type": "integer"
    }
  }
}