{
  "title": "Owner properties",
  "type": "object",
  "required": [
    "owner-id",
    "owner-name",
    "email-distribution"
  ],
  "properties": {
    "owner-id": {
      "type": "integer"
    },
    "owner-name": {
      "type": "string"
    },
    "email-distribution": {
      "type": "array",
      "items": {
        "type": "string"
      }
    },
    "collection-prefixes": {
      "type": "array",
      "items": {
        "type": "string"
      }
    }
  }
}

